EESchema Schematic File Version 4
EELAYER 30 0
EELAYER END
$Descr A4 11693 8268
encoding utf-8
Sheet 1 1
Title "CoroRob"
Date "2020-09-04"
Rev "0.0.1"
Comp "ROBOCAMP"
Comment1 "A hand sanitizing robot"
Comment2 ""
Comment3 ""
Comment4 ""
$EndDescr
$Comp
L Driver_Motor:L293D U5
U 1 1 5F56C684
P 8100 3475
F 0 "U5" H 9000 4825 50  0000 C CNN
F 1 "L293D" H 8425 4500 50  0000 C CNN
F 2 "Package_DIP:DIP-16_W7.62mm" H 8350 2725 50  0001 L CNN
F 3 "http://www.ti.com/lit/ds/symlink/l293.pdf" H 7800 4175 50  0001 C CNN
	1    8100 3475
	1    0    0    -1  
$EndComp
$Comp
L Device:CP1 C1
U 1 1 5F5727E6
P 8875 1450
F 0 "C1" H 8990 1496 50  0000 L CNN
F 1 "100uF" H 8990 1405 50  0000 L CNN
F 2 "" H 8875 1450 50  0001 C CNN
F 3 "~" H 8875 1450 50  0001 C CNN
	1    8875 1450
	1    0    0    -1  
$EndComp
$Comp
L power:GND #PWR013
U 1 1 5F574AB9
P 1750 4475
F 0 "#PWR013" H 1750 4225 50  0001 C CNN
F 1 "GND" H 1755 4302 50  0000 C CNN
F 2 "" H 1750 4475 50  0001 C CNN
F 3 "" H 1750 4475 50  0001 C CNN
	1    1750 4475
	1    0    0    -1  
$EndComp
$Comp
L power:+5V #PWR022
U 1 1 5F574E1D
P 8875 1300
F 0 "#PWR022" H 8875 1150 50  0001 C CNN
F 1 "+5V" H 8890 1473 50  0000 C CNN
F 2 "" H 8875 1300 50  0001 C CNN
F 3 "" H 8875 1300 50  0001 C CNN
	1    8875 1300
	1    0    0    -1  
$EndComp
$Comp
L power:GND #PWR023
U 1 1 5F575358
P 8875 1600
F 0 "#PWR023" H 8875 1350 50  0001 C CNN
F 1 "GND" H 8880 1427 50  0000 C CNN
F 2 "" H 8875 1600 50  0001 C CNN
F 3 "" H 8875 1600 50  0001 C CNN
	1    8875 1600
	1    0    0    -1  
$EndComp
$Comp
L rotaryMeasurmentMachine-cache:Sensor_Voltage_SKU_DFR0205_RC DC-DC1
U 1 1 5F58053E
P 9575 5800
F 0 "DC-DC1" H 9212 6565 50  0000 C CNN
F 1 "Sensor_Voltage_SKU_DFR0205_RC" H 9212 6474 50  0000 C CNN
F 2 "" H 9575 5800 50  0001 C CNN
F 3 "" H 9575 5800 50  0001 C CNN
	1    9575 5800
	1    0    0    -1  
$EndComp
$Comp
L rotaryMeasurmentMachine-cache:SHARP-2Y0A21 U1
U 1 1 5F5817E8
P 1825 5950
F 0 "U1" H 1900 6375 50  0000 R CNN
F 1 "SHARP-2Y0A21" H 2150 6275 50  0000 R CNN
F 2 "" H 2675 5550 50  0001 C CNN
F 3 "" H 2675 5550 50  0001 C CNN
	1    1825 5950
	-1   0    0    1   
$EndComp
$Comp
L rotaryMeasurmentMachine-cache:HC-SR04-Ultrasonic U2
U 1 1 5F582567
P 3650 5650
F 0 "U2" H 3700 6350 50  0000 R CNN
F 1 "HC-SR04-Ultrasonic" H 4000 6275 50  0000 R CNN
F 2 "" H 3600 5150 50  0001 C CNN
F 3 "" H 3600 5150 50  0001 C CNN
	1    3650 5650
	-1   0    0    1   
$EndComp
$Comp
L power:+5V #PWR014
U 1 1 5F585E87
P 1850 2375
F 0 "#PWR014" H 1850 2225 50  0001 C CNN
F 1 "+5V" H 1865 2548 50  0000 C CNN
F 2 "" H 1850 2375 50  0001 C CNN
F 3 "" H 1850 2375 50  0001 C CNN
	1    1850 2375
	1    0    0    -1  
$EndComp
$Comp
L power:+6V #PWR011
U 1 1 5F587100
P 1550 2375
F 0 "#PWR011" H 1550 2225 50  0001 C CNN
F 1 "+6V" H 1565 2548 50  0000 C CNN
F 2 "" H 1550 2375 50  0001 C CNN
F 3 "" H 1550 2375 50  0001 C CNN
	1    1550 2375
	1    0    0    -1  
$EndComp
$Comp
L rotaryMeasurmentMachine-cache:SHARP-2Y0A21 U3
U 1 1 5F591840
P 5375 5950
F 0 "U3" H 5425 6350 50  0000 R CNN
F 1 "SHARP-2Y0A21" H 5650 6275 50  0000 R CNN
F 2 "" H 6225 5550 50  0001 C CNN
F 3 "" H 6225 5550 50  0001 C CNN
	1    5375 5950
	-1   0    0    1   
$EndComp
$Comp
L rotaryMeasurmentMachine-cache:SHARP-2Y0A21 U4
U 1 1 5F597C0D
P 7125 5950
F 0 "U4" H 7175 6325 50  0000 R CNN
F 1 "SHARP-2Y0A21" H 7400 6250 50  0000 R CNN
F 2 "" H 7975 5550 50  0001 C CNN
F 3 "" H 7975 5550 50  0001 C CNN
	1    7125 5950
	-1   0    0    1   
$EndComp
$Comp
L MCU_Module:Arduino_Nano_v3.x A1
U 1 1 5F58357E
P 1650 3375
F 0 "A1" H 1225 2400 50  0000 C CNN
F 1 "Arduino_Nano_v3.x" H 1200 2300 50  0000 C CNN
F 2 "Module:Arduino_Nano" H 1650 3375 50  0001 C CIN
F 3 "http://www.mouser.com/pdfdocs/Gravitech_Arduino_Nano3_0.pdf" H 1650 3375 50  0001 C CNN
	1    1650 3375
	1    0    0    -1  
$EndComp
$Comp
L Connector:Barrel_Jack J1
U 1 1 5F5A1A86
P 7850 1500
F 0 "J1" H 7907 1825 50  0000 C CNN
F 1 "Barrel_Jack" H 7907 1734 50  0000 C CNN
F 2 "" H 7900 1460 50  0001 C CNN
F 3 "~" H 7900 1460 50  0001 C CNN
	1    7850 1500
	1    0    0    -1  
$EndComp
$Comp
L power:+12V #PWR01
U 1 1 5F5A2A35
P 8300 1250
F 0 "#PWR01" H 8300 1100 50  0001 C CNN
F 1 "+12V" H 8315 1423 50  0000 C CNN
F 2 "" H 8300 1250 50  0001 C CNN
F 3 "" H 8300 1250 50  0001 C CNN
	1    8300 1250
	1    0    0    -1  
$EndComp
Wire Wire Line
	8150 1400 8300 1400
Wire Wire Line
	8300 1400 8300 1250
$Comp
L power:GND #PWR02
U 1 1 5F5A3C58
P 8300 1750
F 0 "#PWR02" H 8300 1500 50  0001 C CNN
F 1 "GND" H 8305 1577 50  0000 C CNN
F 2 "" H 8300 1750 50  0001 C CNN
F 3 "" H 8300 1750 50  0001 C CNN
	1    8300 1750
	1    0    0    -1  
$EndComp
Wire Wire Line
	8150 1600 8300 1600
Wire Wire Line
	8300 1600 8300 1750
$Comp
L power:GND #PWR017
U 1 1 5F5A5F03
P 8400 5975
F 0 "#PWR017" H 8400 5725 50  0001 C CNN
F 1 "GND" H 8405 5802 50  0000 C CNN
F 2 "" H 8400 5975 50  0001 C CNN
F 3 "" H 8400 5975 50  0001 C CNN
	1    8400 5975
	1    0    0    -1  
$EndComp
Wire Wire Line
	8500 5700 8400 5700
$Comp
L power:+12V #PWR016
U 1 1 5F5A6A26
P 8400 5350
F 0 "#PWR016" H 8400 5200 50  0001 C CNN
F 1 "+12V" H 8415 5523 50  0000 C CNN
F 2 "" H 8400 5350 50  0001 C CNN
F 3 "" H 8400 5350 50  0001 C CNN
	1    8400 5350
	1    0    0    -1  
$EndComp
Wire Wire Line
	8400 5625 8500 5625
Wire Wire Line
	8400 5700 8400 5975
Wire Wire Line
	8400 5350 8400 5625
$Comp
L power:GND #PWR021
U 1 1 5F5A8A5E
P 10025 6050
F 0 "#PWR021" H 10025 5800 50  0001 C CNN
F 1 "GND" H 10030 5877 50  0000 C CNN
F 2 "" H 10025 6050 50  0001 C CNN
F 3 "" H 10025 6050 50  0001 C CNN
	1    10025 6050
	1    0    0    -1  
$EndComp
Wire Wire Line
	9925 5975 10025 5975
Wire Wire Line
	10025 5975 10025 6050
$Comp
L power:+6V #PWR020
U 1 1 5F5AAB10
P 10025 5275
F 0 "#PWR020" H 10025 5125 50  0001 C CNN
F 1 "+6V" H 10040 5448 50  0000 C CNN
F 2 "" H 10025 5275 50  0001 C CNN
F 3 "" H 10025 5275 50  0001 C CNN
	1    10025 5275
	1    0    0    -1  
$EndComp
Wire Wire Line
	10025 5900 9925 5900
Wire Wire Line
	10025 5275 10025 5900
$Comp
L Motor:Motor_DC M4
U 1 1 5F5AD15B
P 9175 2900
F 0 "M4" H 9333 2896 50  0000 L CNN
F 1 "Paristaltic pump" H 9333 2805 50  0000 L CNN
F 2 "" H 9175 2810 50  0001 C CNN
F 3 "~" H 9175 2810 50  0001 C CNN
	1    9175 2900
	1    0    0    -1  
$EndComp
$Comp
L power:+6V #PWR018
U 1 1 5F5B03E3
P 8000 2475
F 0 "#PWR018" H 8000 2325 50  0001 C CNN
F 1 "+6V" H 8015 2648 50  0000 C CNN
F 2 "" H 8000 2475 50  0001 C CNN
F 3 "" H 8000 2475 50  0001 C CNN
	1    8000 2475
	1    0    0    -1  
$EndComp
Wire Wire Line
	1650 4375 1650 4425
Wire Wire Line
	1650 4425 1750 4425
Wire Wire Line
	1750 4425 1750 4375
Wire Wire Line
	1750 4425 1750 4475
Connection ~ 1750 4425
Wire Wire Line
	8600 2875 8800 2875
Wire Wire Line
	8800 2875 8800 2550
Wire Wire Line
	8800 2550 9175 2550
Wire Wire Line
	9175 2550 9175 2700
Wire Wire Line
	8600 3075 8800 3075
Wire Wire Line
	8800 3075 8800 3375
Wire Wire Line
	8800 3375 9175 3375
Wire Wire Line
	9175 3375 9175 3200
$Comp
L power:GND #PWR019
U 1 1 5F5B6F3E
P 8100 4400
F 0 "#PWR019" H 8100 4150 50  0001 C CNN
F 1 "GND" H 8105 4227 50  0000 C CNN
F 2 "" H 8100 4400 50  0001 C CNN
F 3 "" H 8100 4400 50  0001 C CNN
	1    8100 4400
	1    0    0    -1  
$EndComp
Wire Wire Line
	8300 4350 8200 4350
Wire Wire Line
	8100 4350 8100 4400
Wire Wire Line
	7900 4275 7900 4350
Wire Wire Line
	7900 4350 8000 4350
Connection ~ 8100 4350
Wire Wire Line
	8000 4275 8000 4350
Connection ~ 8000 4350
Wire Wire Line
	8000 4350 8100 4350
Wire Wire Line
	8200 4275 8200 4350
Connection ~ 8200 4350
Wire Wire Line
	8200 4350 8100 4350
Wire Wire Line
	8300 4275 8300 4350
$Comp
L power:+5V #PWR03
U 1 1 5F5C90A0
P 1725 5600
F 0 "#PWR03" H 1725 5450 50  0001 C CNN
F 1 "+5V" H 1740 5773 50  0000 C CNN
F 2 "" H 1725 5600 50  0001 C CNN
F 3 "" H 1725 5600 50  0001 C CNN
	1    1725 5600
	1    0    0    -1  
$EndComp
$Comp
L power:+5V #PWR06
U 1 1 5F5C9CEB
P 3800 5600
F 0 "#PWR06" H 3800 5450 50  0001 C CNN
F 1 "+5V" H 3815 5773 50  0000 C CNN
F 2 "" H 3800 5600 50  0001 C CNN
F 3 "" H 3800 5600 50  0001 C CNN
	1    3800 5600
	1    0    0    -1  
$EndComp
$Comp
L power:+5V #PWR09
U 1 1 5F5CA48F
P 5275 5600
F 0 "#PWR09" H 5275 5450 50  0001 C CNN
F 1 "+5V" H 5290 5773 50  0000 C CNN
F 2 "" H 5275 5600 50  0001 C CNN
F 3 "" H 5275 5600 50  0001 C CNN
	1    5275 5600
	1    0    0    -1  
$EndComp
$Comp
L power:+5V #PWR012
U 1 1 5F5CAABD
P 7025 5600
F 0 "#PWR012" H 7025 5450 50  0001 C CNN
F 1 "+5V" H 7040 5773 50  0000 C CNN
F 2 "" H 7025 5600 50  0001 C CNN
F 3 "" H 7025 5600 50  0001 C CNN
	1    7025 5600
	1    0    0    -1  
$EndComp
Wire Wire Line
	1825 5600 1825 5300
Wire Wire Line
	1825 5300 3500 5300
Wire Wire Line
	3500 5300 3500 5600
Wire Wire Line
	3500 5300 5375 5300
Wire Wire Line
	5375 5300 5375 5600
Connection ~ 3500 5300
Wire Wire Line
	5375 5300 7125 5300
Wire Wire Line
	7125 5300 7125 5600
Connection ~ 5375 5300
Wire Wire Line
	7125 5300 7825 5300
Wire Wire Line
	7825 5300 7825 5525
Connection ~ 7125 5300
$Comp
L power:GND #PWR?
U 1 1 5F5E0B86
P 7825 5525
F 0 "#PWR?" H 7825 5275 50  0001 C CNN
F 1 "GND" H 7830 5352 50  0000 C CNN
F 2 "" H 7825 5525 50  0001 C CNN
F 3 "" H 7825 5525 50  0001 C CNN
	1    7825 5525
	1    0    0    -1  
$EndComp
Wire Wire Line
	1925 5600 1925 5000
Wire Wire Line
	1925 5000 2350 5000
Wire Wire Line
	2350 5000 2350 3875
Wire Wire Line
	2350 3875 2150 3875
Wire Wire Line
	3600 5600 3600 5375
Wire Wire Line
	3700 5375 3700 5600
Wire Wire Line
	2150 3475 2525 3475
Wire Wire Line
	2525 3475 2525 5000
Wire Wire Line
	2525 5000 5475 5000
Wire Wire Line
	5475 5000 5475 5600
Wire Wire Line
	2150 3375 2675 3375
Wire Wire Line
	2675 3375 2675 4825
Wire Wire Line
	2675 4825 7225 4825
Wire Wire Line
	7225 4825 7225 5600
Wire Wire Line
	875  1850 875  3675
Wire Wire Line
	875  3675 1150 3675
Wire Wire Line
	750  1950 750  3775
Wire Wire Line
	750  3775 1150 3775
Wire Wire Line
	650  2050 650  3875
Wire Wire Line
	650  3875 1150 3875
Text Label 3600 5550 1    50   ~ 0
Echo
Text Label 3700 5550 1    50   ~ 0
Trig
Text Label 1150 3275 2    50   ~ 0
Trig
Text Label 1150 3375 2    50   ~ 0
Echo
Wire Wire Line
	1150 3375 975  3375
Wire Wire Line
	975  3275 1150 3275
Text Label 7450 2875 0    50   ~ 0
1A
Text Label 7450 3075 0    50   ~ 0
2A
Wire Wire Line
	7600 3075 7450 3075
Wire Wire Line
	7600 2875 7450 2875
Text Label 1000 3975 0    50   ~ 0
1A
Text Label 1000 4075 0    50   ~ 0
2A
Wire Wire Line
	1150 4075 1000 4075
Wire Wire Line
	1150 3975 1000 3975
Wire Wire Line
	3975 2050 650  2050
Wire Wire Line
	3975 1575 3975 2050
Wire Wire Line
	3125 1950 750  1950
Wire Wire Line
	3125 1575 3125 1950
Wire Wire Line
	2275 1850 875  1850
Wire Wire Line
	2275 1575 2275 1850
$Comp
L power:+6V #PWR010
U 1 1 5F5BF022
P 4525 1700
F 0 "#PWR010" H 4525 1550 50  0001 C CNN
F 1 "+6V" H 4540 1873 50  0000 C CNN
F 2 "" H 4525 1700 50  0001 C CNN
F 3 "" H 4525 1700 50  0001 C CNN
	1    4525 1700
	1    0    0    -1  
$EndComp
Connection ~ 4075 1850
Wire Wire Line
	4525 1850 4525 1700
Wire Wire Line
	4075 1850 4525 1850
Connection ~ 3225 1850
Wire Wire Line
	4075 1575 4075 1850
Wire Wire Line
	4075 1850 3225 1850
Wire Wire Line
	3225 1575 3225 1850
Wire Wire Line
	2375 1575 2375 1850
Wire Wire Line
	2375 1850 3225 1850
$Comp
L power:GND #PWR08
U 1 1 5F5BCA71
P 4175 1575
F 0 "#PWR08" H 4175 1325 50  0001 C CNN
F 1 "GND" H 4180 1402 50  0000 C CNN
F 2 "" H 4175 1575 50  0001 C CNN
F 3 "" H 4175 1575 50  0001 C CNN
	1    4175 1575
	1    0    0    -1  
$EndComp
$Comp
L power:GND #PWR07
U 1 1 5F5BC6C2
P 3325 1575
F 0 "#PWR07" H 3325 1325 50  0001 C CNN
F 1 "GND" H 3330 1402 50  0000 C CNN
F 2 "" H 3325 1575 50  0001 C CNN
F 3 "" H 3325 1575 50  0001 C CNN
	1    3325 1575
	1    0    0    -1  
$EndComp
$Comp
L power:GND #PWR04
U 1 1 5F5BBEFC
P 2475 1575
F 0 "#PWR04" H 2475 1325 50  0001 C CNN
F 1 "GND" H 2480 1402 50  0000 C CNN
F 2 "" H 2475 1575 50  0001 C CNN
F 3 "" H 2475 1575 50  0001 C CNN
	1    2475 1575
	1    0    0    -1  
$EndComp
$Comp
L Motor:Motor_Servo_Hitec M3
U 1 1 5F593E35
P 4075 1275
F 0 "M3" V 4400 1325 50  0000 R CNN
F 1 "Motor_Servo_Hitec" V 4475 1650 50  0000 R CNN
F 2 "" H 4075 1085 50  0001 C CNN
F 3 "http://forums.parallax.com/uploads/attachments/46831/74481.png" H 4075 1085 50  0001 C CNN
	1    4075 1275
	0    -1   -1   0   
$EndComp
$Comp
L Motor:Motor_Servo_Hitec M2
U 1 1 5F59327F
P 3225 1275
F 0 "M2" V 3550 1325 50  0000 R CNN
F 1 "Motor_Servo_Hitec" V 3625 1650 50  0000 R CNN
F 2 "" H 3225 1085 50  0001 C CNN
F 3 "http://forums.parallax.com/uploads/attachments/46831/74481.png" H 3225 1085 50  0001 C CNN
	1    3225 1275
	0    -1   -1   0   
$EndComp
$Comp
L Motor:Motor_Servo_Hitec M1
U 1 1 5F58C9E0
P 2375 1275
F 0 "M1" V 2700 1325 50  0000 R CNN
F 1 "Motor_Servo_Hitec" V 2775 1650 50  0000 R CNN
F 2 "" H 2375 1085 50  0001 C CNN
F 3 "http://forums.parallax.com/uploads/attachments/46831/74481.png" H 2375 1085 50  0001 C CNN
	1    2375 1275
	0    -1   -1   0   
$EndComp
$EndSCHEMATC
