G04 #@! TF.GenerationSoftware,KiCad,Pcbnew,(5.1.5)-3*
G04 #@! TF.CreationDate,2020-11-27T22:06:28+02:00*
G04 #@! TF.ProjectId,TLWCC,544c5743-432e-46b6-9963-61645f706362,rev?*
G04 #@! TF.SameCoordinates,Original*
G04 #@! TF.FileFunction,Legend,Bot*
G04 #@! TF.FilePolarity,Positive*
%FSLAX46Y46*%
G04 Gerber Fmt 4.6, Leading zero omitted, Abs format (unit mm)*
G04 Created by KiCad (PCBNEW (5.1.5)-3) date 2020-11-27 22:06:28*
%MOMM*%
%LPD*%
G04 APERTURE LIST*
%ADD10C,0.150000*%
%ADD11C,0.120000*%
G04 APERTURE END LIST*
D10*
X184916666Y-121116666D02*
X184583333Y-120883333D01*
X184916666Y-120716666D02*
X184216666Y-120716666D01*
X184216666Y-120983333D01*
X184250000Y-121050000D01*
X184283333Y-121083333D01*
X184350000Y-121116666D01*
X184450000Y-121116666D01*
X184516666Y-121083333D01*
X184550000Y-121050000D01*
X184583333Y-120983333D01*
X184583333Y-120716666D01*
X184883333Y-121383333D02*
X184916666Y-121483333D01*
X184916666Y-121650000D01*
X184883333Y-121716666D01*
X184850000Y-121750000D01*
X184783333Y-121783333D01*
X184716666Y-121783333D01*
X184650000Y-121750000D01*
X184616666Y-121716666D01*
X184583333Y-121650000D01*
X184550000Y-121516666D01*
X184516666Y-121450000D01*
X184483333Y-121416666D01*
X184416666Y-121383333D01*
X184350000Y-121383333D01*
X184283333Y-121416666D01*
X184250000Y-121450000D01*
X184216666Y-121516666D01*
X184216666Y-121683333D01*
X184250000Y-121783333D01*
X184216666Y-121983333D02*
X184216666Y-122383333D01*
X184916666Y-122183333D02*
X184216666Y-122183333D01*
X181716666Y-122400000D02*
X181683333Y-122300000D01*
X181683333Y-122133333D01*
X181716666Y-122066666D01*
X181750000Y-122033333D01*
X181816666Y-122000000D01*
X181883333Y-122000000D01*
X181950000Y-122033333D01*
X181983333Y-122066666D01*
X182016666Y-122133333D01*
X182050000Y-122266666D01*
X182083333Y-122333333D01*
X182116666Y-122366666D01*
X182183333Y-122400000D01*
X182250000Y-122400000D01*
X182316666Y-122366666D01*
X182350000Y-122333333D01*
X182383333Y-122266666D01*
X182383333Y-122100000D01*
X182350000Y-122000000D01*
X181750000Y-121300000D02*
X181716666Y-121333333D01*
X181683333Y-121433333D01*
X181683333Y-121500000D01*
X181716666Y-121600000D01*
X181783333Y-121666666D01*
X181850000Y-121700000D01*
X181983333Y-121733333D01*
X182083333Y-121733333D01*
X182216666Y-121700000D01*
X182283333Y-121666666D01*
X182350000Y-121600000D01*
X182383333Y-121500000D01*
X182383333Y-121433333D01*
X182350000Y-121333333D01*
X182316666Y-121300000D01*
X181683333Y-121000000D02*
X182383333Y-121000000D01*
X181683333Y-120600000D02*
X182083333Y-120900000D01*
X182383333Y-120600000D02*
X181983333Y-121000000D01*
X179283333Y-122800000D02*
X179983333Y-122800000D01*
X179483333Y-122566666D01*
X179983333Y-122333333D01*
X179283333Y-122333333D01*
X179283333Y-122000000D02*
X179983333Y-122000000D01*
X179316666Y-121700000D02*
X179283333Y-121600000D01*
X179283333Y-121433333D01*
X179316666Y-121366666D01*
X179350000Y-121333333D01*
X179416666Y-121300000D01*
X179483333Y-121300000D01*
X179550000Y-121333333D01*
X179583333Y-121366666D01*
X179616666Y-121433333D01*
X179650000Y-121566666D01*
X179683333Y-121633333D01*
X179716666Y-121666666D01*
X179783333Y-121700000D01*
X179850000Y-121700000D01*
X179916666Y-121666666D01*
X179950000Y-121633333D01*
X179983333Y-121566666D01*
X179983333Y-121400000D01*
X179950000Y-121300000D01*
X179983333Y-120866666D02*
X179983333Y-120733333D01*
X179950000Y-120666666D01*
X179883333Y-120600000D01*
X179750000Y-120566666D01*
X179516666Y-120566666D01*
X179383333Y-120600000D01*
X179316666Y-120666666D01*
X179283333Y-120733333D01*
X179283333Y-120866666D01*
X179316666Y-120933333D01*
X179383333Y-121000000D01*
X179516666Y-121033333D01*
X179750000Y-121033333D01*
X179883333Y-121000000D01*
X179950000Y-120933333D01*
X179983333Y-120866666D01*
X181683333Y-131000000D02*
X182383333Y-131000000D01*
X181883333Y-130766666D01*
X182383333Y-130533333D01*
X181683333Y-130533333D01*
X182383333Y-130066666D02*
X182383333Y-129933333D01*
X182350000Y-129866666D01*
X182283333Y-129800000D01*
X182150000Y-129766666D01*
X181916666Y-129766666D01*
X181783333Y-129800000D01*
X181716666Y-129866666D01*
X181683333Y-129933333D01*
X181683333Y-130066666D01*
X181716666Y-130133333D01*
X181783333Y-130200000D01*
X181916666Y-130233333D01*
X182150000Y-130233333D01*
X182283333Y-130200000D01*
X182350000Y-130133333D01*
X182383333Y-130066666D01*
X181716666Y-129500000D02*
X181683333Y-129400000D01*
X181683333Y-129233333D01*
X181716666Y-129166666D01*
X181750000Y-129133333D01*
X181816666Y-129100000D01*
X181883333Y-129100000D01*
X181950000Y-129133333D01*
X181983333Y-129166666D01*
X182016666Y-129233333D01*
X182050000Y-129366666D01*
X182083333Y-129433333D01*
X182116666Y-129466666D01*
X182183333Y-129500000D01*
X182250000Y-129500000D01*
X182316666Y-129466666D01*
X182350000Y-129433333D01*
X182383333Y-129366666D01*
X182383333Y-129200000D01*
X182350000Y-129100000D01*
X181683333Y-128800000D02*
X182383333Y-128800000D01*
X179883333Y-129933333D02*
X179883333Y-129500000D01*
X179616666Y-129733333D01*
X179616666Y-129633333D01*
X179583333Y-129566666D01*
X179550000Y-129533333D01*
X179483333Y-129500000D01*
X179316666Y-129500000D01*
X179250000Y-129533333D01*
X179216666Y-129566666D01*
X179183333Y-129633333D01*
X179183333Y-129833333D01*
X179216666Y-129900000D01*
X179250000Y-129933333D01*
X179883333Y-129300000D02*
X179183333Y-129066666D01*
X179883333Y-128833333D01*
X185050000Y-130133333D02*
X185083333Y-130200000D01*
X185083333Y-130300000D01*
X185050000Y-130400000D01*
X184983333Y-130466666D01*
X184916666Y-130500000D01*
X184783333Y-130533333D01*
X184683333Y-130533333D01*
X184550000Y-130500000D01*
X184483333Y-130466666D01*
X184416666Y-130400000D01*
X184383333Y-130300000D01*
X184383333Y-130233333D01*
X184416666Y-130133333D01*
X184450000Y-130100000D01*
X184683333Y-130100000D01*
X184683333Y-130233333D01*
X184383333Y-129800000D02*
X185083333Y-129800000D01*
X184383333Y-129400000D01*
X185083333Y-129400000D01*
X184383333Y-129066666D02*
X185083333Y-129066666D01*
X185083333Y-128900000D01*
X185050000Y-128800000D01*
X184983333Y-128733333D01*
X184916666Y-128700000D01*
X184783333Y-128666666D01*
X184683333Y-128666666D01*
X184550000Y-128700000D01*
X184483333Y-128733333D01*
X184416666Y-128800000D01*
X184383333Y-128900000D01*
X184383333Y-129066666D01*
D11*
X162250000Y-101600000D02*
X152750000Y-101600000D01*
X167750000Y-94900000D02*
X162250000Y-101600000D01*
X167750000Y-87100000D02*
X167750000Y-94900000D01*
X162250000Y-80400000D02*
X167750000Y-87100000D01*
X152740000Y-80400000D02*
X162250000Y-80400000D01*
X178170000Y-123170000D02*
X178170000Y-124500000D01*
X179500000Y-123170000D02*
X178170000Y-123170000D01*
X178170000Y-125770000D02*
X178170000Y-128370000D01*
X180770000Y-125770000D02*
X178170000Y-125770000D01*
X180770000Y-123170000D02*
X180770000Y-125770000D01*
X178170000Y-128370000D02*
X185910000Y-128370000D01*
X180770000Y-123170000D02*
X185910000Y-123170000D01*
X185910000Y-123170000D02*
X185910000Y-128370000D01*
X178802942Y-92681624D02*
G75*
G03X176681623Y-94802944I3464825J-5586143D01*
G01*
X188497767Y-98267767D02*
G75*
G03X188497767Y-98267767I-6230000J0D01*
G01*
D10*
X179502380Y-84404761D02*
X179026190Y-84071428D01*
X179502380Y-83833333D02*
X178502380Y-83833333D01*
X178502380Y-84214285D01*
X178550000Y-84309523D01*
X178597619Y-84357142D01*
X178692857Y-84404761D01*
X178835714Y-84404761D01*
X178930952Y-84357142D01*
X178978571Y-84309523D01*
X179026190Y-84214285D01*
X179026190Y-83833333D01*
X178502380Y-84690476D02*
X179502380Y-85023809D01*
X178502380Y-85357142D01*
X179502380Y-86214285D02*
X179502380Y-85642857D01*
X179502380Y-85928571D02*
X178502380Y-85928571D01*
X178645238Y-85833333D01*
X178740476Y-85738095D01*
X178788095Y-85642857D01*
X149728571Y-90214285D02*
X149776190Y-90357142D01*
X149823809Y-90404761D01*
X149919047Y-90452380D01*
X150061904Y-90452380D01*
X150157142Y-90404761D01*
X150204761Y-90357142D01*
X150252380Y-90261904D01*
X150252380Y-89880952D01*
X149252380Y-89880952D01*
X149252380Y-90214285D01*
X149300000Y-90309523D01*
X149347619Y-90357142D01*
X149442857Y-90404761D01*
X149538095Y-90404761D01*
X149633333Y-90357142D01*
X149680952Y-90309523D01*
X149728571Y-90214285D01*
X149728571Y-89880952D01*
X149252380Y-90738095D02*
X149252380Y-91309523D01*
X150252380Y-91023809D02*
X149252380Y-91023809D01*
X150252380Y-92166666D02*
X150252380Y-91595238D01*
X150252380Y-91880952D02*
X149252380Y-91880952D01*
X149395238Y-91785714D01*
X149490476Y-91690476D01*
X149538095Y-91595238D01*
X176622380Y-125436666D02*
X177336666Y-125436666D01*
X177479523Y-125389047D01*
X177574761Y-125293809D01*
X177622380Y-125150952D01*
X177622380Y-125055714D01*
X177622380Y-126436666D02*
X177622380Y-125865238D01*
X177622380Y-126150952D02*
X176622380Y-126150952D01*
X176765238Y-126055714D01*
X176860476Y-125960476D01*
X176908095Y-125865238D01*
X177871246Y-103910142D02*
X177736559Y-103842799D01*
X177669215Y-103842799D01*
X177568200Y-103876471D01*
X177467185Y-103977486D01*
X177433513Y-104078501D01*
X177433513Y-104145845D01*
X177467185Y-104246860D01*
X177736559Y-104516234D01*
X178443665Y-103809127D01*
X178207963Y-103573425D01*
X178106948Y-103539753D01*
X178039604Y-103539753D01*
X177938589Y-103573425D01*
X177871246Y-103640768D01*
X177837574Y-103741784D01*
X177837574Y-103809127D01*
X177871246Y-103910142D01*
X178106948Y-104145845D01*
X177803902Y-103169364D02*
X177332498Y-102697959D01*
X177096795Y-103876471D01*
X176625391Y-103405066D01*
X175985627Y-102765303D02*
X176389688Y-103169364D01*
X176187658Y-102967333D02*
X176894765Y-102260226D01*
X176861093Y-102428585D01*
X176861093Y-102563272D01*
X176894765Y-102664287D01*
M02*
